…
```
## The following object is masked from 'package:base':
## 
##     date
```

```r
#Don't worry that we haven't covered mutate yet: we'll get to that command further on in the lecture
pres_df <- mutate(pres_df, year_month = make_datetime(pres_df$year, pres_df$month))
pres_df
```

```
## # A tibble: 65 x 10
##       X1 month  year approve disapprove unsure sept.oct.2001 iraq.war
##    <dbl> <dbl> <dbl>   <dbl>      <dbl>  <dbl>         <dbl>    <dbl>
##  1     1     2  2001    58.7      23.7   17.7              0        0
##  2     2     3  2001    58        26.7   15.3              0        0
##  3     3     4  2001    60.5      29.5   10                0        0
##  4     4     5  2001    55        33.3   11.7              0        0
##  5     5     6  2001    54        34     12                0        0
##  6     6     7  2001    56.5      34      9.5              0        0
##  7     7     8  2001    56        35      9                0        0
##  8     8     9  2001    75.7      18.3    6                1        0
##  9     9    10  2001    88         9      3                1        0
## 10    10    11  2001    87         8.67   4.33             0        0
## # … with 55 more rows, and 2 more variables: avg.price <dbl>,
## #   year_month <dttm>
```
…
